{
  "map": {
    "transfer": {
      "ipSCAPE_Time_in_Queue__c": "timeInQueue",
      "ipSCAPE_campaign__c": "campaignTitle"
    },
    "outbound": {
      "ipSCAPE_campaign__c": "campaignTitle"
    },
    "inbound": {
      "ipSCAPE_Time_in_Queue__c": "timeInQueue",
      "ipSCAPE_campaign__c": "campaignTitle"
    },
    "default": {
      "ipSCAPE_callEnd__c": "callEndedDate",
      "ipSCAPE_callStart__c": "callStartedDate",
      "ipSCAPE_Customer_Phone_Number__c": "customerPhoneNumber",
      "activity__c": "activityId",
      "activityOrigin__c": "'ipSCAPE'",
      "CallCenter__c": "platformPhoneNumber",
      "ipSCAPE_AgentName__c": "agentFullName"
    }
  },
  "settings": {
    "disablePaymentsBtn": "false",
    "defaultWrapCode": null,
    "displayWrapCodes": "true"
  },
  "screenPopConfig": {
    "default": {
      "ref": "nationalPhoneNumber"
    },
    "rules": [
      {
        "callType": "outbound",
        "search": false,
        "ref": [
          "customerKey",
          "SFLeadId"
        ]
      },
      {
        "callType": "transfer",
        "ref": "internationalPhoneNumber"
      }
    ]
  }
}